[
 {
  "title": "UlmAPI",
  "time": "18:00",
  "day": "Monday",
  "kind": "Lab",
  "place": "O27/343",
  "prof": "",
  "turnin": "",
  "id": 0
 },
 {
  "title": "CCC Ulm",
  "time": "20:00",
  "day": "Monday",
  "kind": "Meeting",
  "place": "Cafe Einstein",
  "prof": "",
  "turnin": "",
  "id": 1
 }
]
