[
 {
  "title": "UlmAPI",
  "time": "18:00",
  "day": "Monday",
  "kind": "Lab",
  "place": "O27/343",
  "prof": "",
  "turnin": "",
  "id": 0
 },
 {
  "title": "FIN Sitzung",
  "time": "18:00",
  "day": "Wed",
  "kind": "meeting",
  "place": "",
  "prof": "",
  "turnin": "",
  "id": 2
 }
]